{
    "name": "GameplayInput",
    "maps": [
        {
            "name": "Gameplay",
            "id": "58947089-b719-4b23-987e-fea0f6006aa4",
            "actions": [
                {
                    "name": "Movement",
                    "type": "Button",
                    "id": "8c0db3f0-f5e7-442b-ad31-5fd7773c7ccf",
                    "expectedControlType": "Button",
                    "processors": "",
                    "interactions": ""
                },
                {
                    "name": "Jump",
                    "type": "Button",
                    "id": "319b9613-8c83-4704-9723-37ebb0dab2b0",
                    "expectedControlType": "Button",
                    "processors": "",
                    "interactions": ""
                },
                {
                    "name": "Interact",
                    "type": "Button",
                    "id": "f11dc4a6-37cd-47e9-8157-ec40fa48aab1",
                    "expectedControlType": "Button",
                    "processors": "",
                    "interactions": ""
                },
                {
                    "name": "PauseGame",
                    "type": "Button",
                    "id": "a783d080-fddd-47f0-a051-f36f0e4b3e7e",
                    "expectedControlType": "Button",
                    "processors": "",
                    "interactions": ""
                },
                {
                    "name": "Crouch",
                    "type": "Button",
                    "id": "39cfc06d-6e1e-48ec-80fc-4eca43bd4325",
                    "expectedControlType": "Button",
                    "processors": "",
                    "interactions": ""
                }
            ],
            "bindings": [
                {
                    "name": "WASD",
                    "id": "543f9201-bdd2-45c9-a4fa-78c3983d5eac",
                    "path": "2DVector",
                    "interactions": "",
                    "processors": "",
                    "groups": "",
                    "action": "Movement",
                    "isComposite": true,
                    "isPartOfComposite": false
                },
                {
                    "name": "up",
                    "id": "f491ae78-3fb7-4d16-b7e3-d16d0c4cd9f5",
                    "path": "<Keyboard>/w",
                    "interactions": "",
                    "processors": "",
                    "groups": "",
                    "action": "Movement",
                    "isComposite": false,
                    "isPartOfComposite": true
                },
                {
                    "name": "down",
                    "id": "e472434e-4cb0-4832-9806-4c1b8f5096e1",
                    "path": "<Keyboard>/s",
                    "interactions": "",
                    "processors": "",
                    "groups": "",
                    "action": "Movement",
                    "isComposite": false,
                    "isPartOfComposite": true
                },
                {
                    "name": "left",
                    "id": "4e4577c7-a030-49a6-a254-eb600694a1ec",
                    "path": "<Keyboard>/a",
                    "interactions": "",
                    "processors": "",
                    "groups": "",
                    "action": "Movement",
                    "isComposite": false,
                    "isPartOfComposite": true
                },
                {
                    "name": "right",
                    "id": "c30dfeb4-21b0-40bd-97ab-63161ebb5946",
                    "path": "<Keyboard>/d",
                    "interactions": "",
                    "processors": "",
                    "groups": "",
                    "action": "Movement",
                    "isComposite": false,
                    "isPartOfComposite": true
                },
                {
                    "name": "WASDGamepad",
                    "id": "064160fe-f260-4b9a-a314-508188d087f9",
                    "path": "2DVector",
                    "interactions": "",
                    "processors": "",
                    "groups": "",
                    "action": "Movement",
                    "isComposite": true,
                    "isPartOfComposite": false
                },
                {
                    "name": "up",
                    "id": "5950039d-d70c-44de-8e2a-45ec6fdcfd26",
                    "path": "<Gamepad>/leftStick/up",
                    "interactions": "",
                    "processors": "",
                    "groups": "",
                    "action": "Movement",
                    "isComposite": false,
                    "isPartOfComposite": true
                },
                {
                    "name": "down",
                    "id": "4cb3f41d-6638-4ac3-840b-a528849a7235",
                    "path": "<Gamepad>/leftStick/down",
                    "interactions": "",
                    "processors": "",
                    "groups": "",
                    "action": "Movement",
                    "isComposite": false,
                    "isPartOfComposite": true
                },
                {
                    "name": "left",
                    "id": "8569778f-2e31-4f09-825b-31a450c3b5ad",
                    "path": "<Gamepad>/leftStick/left",
                    "interactions": "",
                    "processors": "",
                    "groups": "",
                    "action": "Movement",
                    "isComposite": false,
                    "isPartOfComposite": true
                },
                {
                    "name": "right",
                    "id": "869c52a2-8644-4611-a659-6e6af65f2ad2",
                    "path": "<Gamepad>/leftStick/right",
                    "interactions": "",
                    "processors": "",
                    "groups": "",
                    "action": "Movement",
                    "isComposite": false,
                    "isPartOfComposite": true
                },
                {
                    "name": "",
                    "id": "3a2dfa23-f1cb-48e3-8e06-32e17f0cc5a2",
                    "path": "<Keyboard>/space",
                    "interactions": "",
                    "processors": "",
                    "groups": "",
                    "action": "Jump",
                    "isComposite": false,
                    "isPartOfComposite": false
                },
                {
                    "name": "",
                    "id": "9dd55e95-0136-473b-8c7e-8c2c7f27aeab",
                    "path": "<Mouse>/leftButton",
                    "interactions": "",
                    "processors": "",
                    "groups": "",
                    "action": "Interact",
                    "isComposite": false,
                    "isPartOfComposite": false
                },
                {
                    "name": "",
                    "id": "3b7f6963-95d0-48e4-a109-1f903257e788",
                    "path": "<Keyboard>/escape",
                    "interactions": "",
                    "processors": "",
                    "groups": "",
                    "action": "PauseGame",
                    "isComposite": false,
                    "isPartOfComposite": false
                },
                {
                    "name": "",
                    "id": "eac0ccea-6397-4cc6-9f7c-39bdc6959686",
                    "path": "<Keyboard>/ctrl",
                    "interactions": "",
                    "processors": "",
                    "groups": "",
                    "action": "Crouch",
                    "isComposite": false,
                    "isPartOfComposite": false
                }
            ]
        },
        {
            "name": "Mouse",
            "id": "5a2a4bf2-c7ae-4f39-bff8-ddd6834209f9",
            "actions": [
                {
                    "name": "Rotation",
                    "type": "Value",
                    "id": "59e8bbe7-846f-40c1-897c-dfbb71bc50ec",
                    "expectedControlType": "",
                    "processors": "",
                    "interactions": ""
                }
            ],
            "bindings": [
                {
                    "name": "",
                    "id": "b5b6ea3e-e4e1-4405-96ce-9692d4a82d71",
                    "path": "<Mouse>/delta",
                    "interactions": "",
                    "processors": "",
                    "groups": "",
                    "action": "Rotation",
                    "isComposite": false,
                    "isPartOfComposite": false
                }
            ]
        },
        {
            "name": "Debug",
            "id": "0cc3789d-57e4-42c0-9ce5-2d756a6237eb",
            "actions": [
                {
                    "name": "EscapeKey",
                    "type": "Button",
                    "id": "03b27efe-f56a-4ae4-bb4e-8b288e819052",
                    "expectedControlType": "Button",
                    "processors": "",
                    "interactions": ""
                }
            ],
            "bindings": [
                {
                    "name": "",
                    "id": "1c36a283-35fc-4cb4-be60-6eeffb349283",
                    "path": "<Keyboard>/escape",
                    "interactions": "",
                    "processors": "",
                    "groups": "",
                    "action": "EscapeKey",
                    "isComposite": false,
                    "isPartOfComposite": false
                }
            ]
        }
    ],
    "controlSchemes": []
}