%YAML 1.1
%TAG !u! tag:unity3d.com,2011:
--- !u!1001 &8176690667917194989
PrefabInstance:
  m_ObjectHideFlags: 0
  serializedVersion: 2
  m_Modification:
    m_TransformParent: {fileID: 0}
    m_Modifications:
    - target: {fileID: 678355047759385735, guid: 019273f8ebd083e4a8a31930c69fe649,
        type: 3}
      propertyPath: m_RootOrder
      value: 0
      objectReference: {fileID: 0}
    - target: {fileID: 678355047759385735, guid: 019273f8ebd083e4a8a31930c69fe649,
        type: 3}
      propertyPath: m_LocalScale.x
      value: 4.878884
      objectReference: {fileID: 0}
    - target: {fileID: 678355047759385735, guid: 019273f8ebd083e4a8a31930c69fe649,
        type: 3}
      propertyPath: m_LocalPosition.x
      value: -8.183309
      objectReference: {fileID: 0}
    - target: {fileID: 678355047759385735, guid: 019273f8ebd083e4a8a31930c69fe649,
        type: 3}
      propertyPath: m_LocalPosition.y
      value: 0.47600004
      objectReference: {fileID: 0}
    - target: {fileID: 678355047759385735, guid: 019273f8ebd083e4a8a31930c69fe649,
        type: 3}
      propertyPath: m_LocalPosition.z
      value: 1.789
      objectReference: {fileID: 0}
    - target: {fileID: 678355047759385735, guid: 019273f8ebd083e4a8a31930c69fe649,
        type: 3}
      propertyPath: m_LocalRotation.w
      value: 0.7071068
      objectReference: {fileID: 0}
    - target: {fileID: 678355047759385735, guid: 019273f8ebd083e4a8a31930c69fe649,
        type: 3}
      propertyPath: m_LocalRotation.x
      value: 0
      objectReference: {fileID: 0}
    - target: {fileID: 678355047759385735, guid: 019273f8ebd083e4a8a31930c69fe649,
        type: 3}
      propertyPath: m_LocalRotation.y
      value: 0.7071068
      objectReference: {fileID: 0}
    - target: {fileID: 678355047759385735, guid: 019273f8ebd083e4a8a31930c69fe649,
        type: 3}
      propertyPath: m_LocalRotation.z
      value: 0
      objectReference: {fileID: 0}
    - target: {fileID: 678355047759385735, guid: 019273f8ebd083e4a8a31930c69fe649,
        type: 3}
      propertyPath: m_LocalEulerAnglesHint.x
      value: 0
      objectReference: {fileID: 0}
    - target: {fileID: 678355047759385735, guid: 019273f8ebd083e4a8a31930c69fe649,
        type: 3}
      propertyPath: m_LocalEulerAnglesHint.y
      value: 90
      objectReference: {fileID: 0}
    - target: {fileID: 678355047759385735, guid: 019273f8ebd083e4a8a31930c69fe649,
        type: 3}
      propertyPath: m_LocalEulerAnglesHint.z
      value: 0
      objectReference: {fileID: 0}
    - target: {fileID: 6460831487822562431, guid: 019273f8ebd083e4a8a31930c69fe649,
        type: 3}
      propertyPath: m_Name
      value: Pared vertical mas larga 38)
      objectReference: {fileID: 0}
    m_RemovedComponents: []
  m_SourcePrefab: {fileID: 100100000, guid: 019273f8ebd083e4a8a31930c69fe649, type: 3}
