%YAML 1.1
%TAG !u! tag:unity3d.com,2011:
--- !u!21 &2100000
Material:
  serializedVersion: 6
  m_ObjectHideFlags: 0
  m_CorrespondingSourceObject: {fileID: 0}
  m_PrefabInstance: {fileID: 0}
  m_PrefabAsset: {fileID: 0}
  m_Name: Radial Dissolve
  m_Shader: {fileID: -6465566751694194690, guid: baff38d6332a38d4eb908dafe68cb95e,
    type: 3}
  m_ShaderKeywords: 
  m_LightmapFlags: 4
  m_EnableInstancingVariants: 1
  m_DoubleSidedGI: 0
  m_CustomRenderQueue: -1
  stringTagMap: {}
  disabledShaderPasses: []
  m_SavedProperties:
    serializedVersion: 3
    m_TexEnvs:
    - Texture2D_F6738AE:
        m_Texture: {fileID: 2800000, guid: 652c1e2fb0f13a145a689ad898822374, type: 3}
        m_Scale: {x: 1, y: 1}
        m_Offset: {x: 0, y: 0}
    - _MainText:
        m_Texture: {fileID: 2800000, guid: ce131d1d56f1bf04fb03c74914cd44b3, type: 3}
        m_Scale: {x: 1, y: 1}
        m_Offset: {x: 0, y: 0}
    m_Floats:
    - Vector1_3350B1D8: 100
    - Vector1_368639C: 0.05
    - Vector1_B0C8724F: 0.05
    - dissolveAmount: 0
    - ringRadius: 0
    m_Colors:
    - Color_39700478: {r: 4, g: 0.28235295, b: 0, a: 0}
    - Color_5154A7A8: {r: 1, g: 1, b: 1, a: 0}
    - Color_A98E8EE9: {r: 0.8490566, g: 0.2202286, b: 0.13216448, a: 0}
    - Vector3_9A301540: {r: 0, g: 0, b: 0, a: 0}
    - radiusOrigin: {r: 0, g: 0, b: 0, a: 0}
  m_BuildTextureStacks: []
