%YAML 1.1
%TAG !u! tag:unity3d.com,2011:
--- !u!1045 &1
EditorBuildSettings:
  m_ObjectHideFlags: 0
  serializedVersion: 2
  m_Scenes:
  - enabled: 1
    path: Assets/Scenes/Init.unity
    guid: 8c6a767bdf713e74ea0f07846de4f67d
  - enabled: 1
    path: Assets/Scenes/Nivel 1.unity
    guid: e52a2f12151599649a3c0a7e2b4f60f3
  - enabled: 1
    path: Assets/Scenes/Nivel 2.unity
    guid: 01580195c3f39d644b47fffffbce7cdb
  - enabled: 1
    path: Assets/Scenes/Nivel 3.unity
    guid: 3a59c0611c4c12d48a9e2cb14470a1d8
  - enabled: 1
    path: Assets/Scenes/Nivel 4.unity
    guid: 5ea5b70ea643f0247b02a9857c20fd82
  - enabled: 1
    path: Assets/Scenes/Nivel 5.unity
    guid: 41a0ceb69e4b5174abaed36c2db1c275
  - enabled: 1
    path: Assets/Scenes/Nivel 6.unity
    guid: dcbff585898524c49a29ab8b41f124c3
  - enabled: 1
    path: Assets/Scenes/Nivel 7.unity
    guid: a84afa0ae2ec20e4d9732c19675835f1
  - enabled: 1
    path: Assets/Scenes/Nivel 8.unity
    guid: 455a832ba94e11d4f97ab3f0b4e4b3a2
  - enabled: 1
    path: Assets/Scenes/Nivel 9.unity
    guid: 51bc2fcc326b019499a3e7f31475c7c3
  - enabled: 1
    path: Assets/Scenes/Credits.unity
    guid: a41aa1ce466ed4c419539bba533e05eb
  - enabled: 1
    path: Assets/Scenes/Loading.unity
    guid: 58117aa86eec27d458e303930297d952
  m_configObjects:
    com.unity.addressableassets: {fileID: 11400000, guid: 6843bd1508dc3574eb0ec3f701226ec3,
      type: 2}
