%YAML 1.1
%TAG !u! tag:unity3d.com,2011:
--- !u!1 &3615580779239887589
GameObject:
  m_ObjectHideFlags: 0
  m_CorrespondingSourceObject: {fileID: 0}
  m_PrefabInstance: {fileID: 0}
  m_PrefabAsset: {fileID: 0}
  serializedVersion: 6
  m_Component:
  - component: {fileID: 5424792636258649689}
  m_Layer: 0
  m_Name: Puerta rota
  m_TagString: Untagged
  m_Icon: {fileID: 0}
  m_NavMeshLayer: 0
  m_StaticEditorFlags: 4294967295
  m_IsActive: 1
--- !u!4 &5424792636258649689
Transform:
  m_ObjectHideFlags: 0
  m_CorrespondingSourceObject: {fileID: 0}
  m_PrefabInstance: {fileID: 0}
  m_PrefabAsset: {fileID: 0}
  m_GameObject: {fileID: 3615580779239887589}
  m_LocalRotation: {x: -0.5003993, y: -0.4996005, z: -0.49960047, w: 0.5003992}
  m_LocalPosition: {x: 8.84, y: -0.419, z: -12.02}
  m_LocalScale: {x: 120.389885, y: 120.38987, z: 120.389854}
  m_Children:
  - {fileID: 4467654390580238467}
  - {fileID: 4467654389616954450}
  m_Father: {fileID: 0}
  m_RootOrder: 0
  m_LocalEulerAnglesHint: {x: 0, y: 0, z: 0}
--- !u!1001 &5706459402333834366
PrefabInstance:
  m_ObjectHideFlags: 0
  serializedVersion: 2
  m_Modification:
    m_TransformParent: {fileID: 5424792636258649689}
    m_Modifications:
    - target: {fileID: 389149400294641057, guid: f28d44131355d5b4daf4b8f581a6829a,
        type: 3}
      propertyPath: m_Name
      value: arco_roto_04 (1)
      objectReference: {fileID: 0}
    - target: {fileID: 8156337133005471788, guid: f28d44131355d5b4daf4b8f581a6829a,
        type: 3}
      propertyPath: m_RootOrder
      value: 1
      objectReference: {fileID: 0}
    - target: {fileID: 8156337133005471788, guid: f28d44131355d5b4daf4b8f581a6829a,
        type: 3}
      propertyPath: m_LocalScale.x
      value: 1
      objectReference: {fileID: 0}
    - target: {fileID: 8156337133005471788, guid: f28d44131355d5b4daf4b8f581a6829a,
        type: 3}
      propertyPath: m_LocalScale.y
      value: -1
      objectReference: {fileID: 0}
    - target: {fileID: 8156337133005471788, guid: f28d44131355d5b4daf4b8f581a6829a,
        type: 3}
      propertyPath: m_LocalScale.z
      value: 1
      objectReference: {fileID: 0}
    - target: {fileID: 8156337133005471788, guid: f28d44131355d5b4daf4b8f581a6829a,
        type: 3}
      propertyPath: m_LocalPosition.x
      value: 0.018061316
      objectReference: {fileID: 0}
    - target: {fileID: 8156337133005471788, guid: f28d44131355d5b4daf4b8f581a6829a,
        type: 3}
      propertyPath: m_LocalPosition.y
      value: -0.21113497
      objectReference: {fileID: 0}
    - target: {fileID: 8156337133005471788, guid: f28d44131355d5b4daf4b8f581a6829a,
        type: 3}
      propertyPath: m_LocalPosition.z
      value: 0.0010338237
      objectReference: {fileID: 0}
    - target: {fileID: 8156337133005471788, guid: f28d44131355d5b4daf4b8f581a6829a,
        type: 3}
      propertyPath: m_LocalRotation.w
      value: 0.7076714
      objectReference: {fileID: 0}
    - target: {fileID: 8156337133005471788, guid: f28d44131355d5b4daf4b8f581a6829a,
        type: 3}
      propertyPath: m_LocalRotation.x
      value: 0.000000029802322
      objectReference: {fileID: 0}
    - target: {fileID: 8156337133005471788, guid: f28d44131355d5b4daf4b8f581a6829a,
        type: 3}
      propertyPath: m_LocalRotation.y
      value: -0.000000059604645
      objectReference: {fileID: 0}
    - target: {fileID: 8156337133005471788, guid: f28d44131355d5b4daf4b8f581a6829a,
        type: 3}
      propertyPath: m_LocalRotation.z
      value: 0.7065418
      objectReference: {fileID: 0}
    - target: {fileID: 8156337133005471788, guid: f28d44131355d5b4daf4b8f581a6829a,
        type: 3}
      propertyPath: m_LocalEulerAnglesHint.x
      value: 0
      objectReference: {fileID: 0}
    - target: {fileID: 8156337133005471788, guid: f28d44131355d5b4daf4b8f581a6829a,
        type: 3}
      propertyPath: m_LocalEulerAnglesHint.y
      value: 0
      objectReference: {fileID: 0}
    - target: {fileID: 8156337133005471788, guid: f28d44131355d5b4daf4b8f581a6829a,
        type: 3}
      propertyPath: m_LocalEulerAnglesHint.z
      value: 0
      objectReference: {fileID: 0}
    m_RemovedComponents: []
  m_SourcePrefab: {fileID: 100100000, guid: f28d44131355d5b4daf4b8f581a6829a, type: 3}
--- !u!4 &4467654389616954450 stripped
Transform:
  m_CorrespondingSourceObject: {fileID: 8156337133005471788, guid: f28d44131355d5b4daf4b8f581a6829a,
    type: 3}
  m_PrefabInstance: {fileID: 5706459402333834366}
  m_PrefabAsset: {fileID: 0}
--- !u!1001 &5706459403530623151
PrefabInstance:
  m_ObjectHideFlags: 0
  serializedVersion: 2
  m_Modification:
    m_TransformParent: {fileID: 5424792636258649689}
    m_Modifications:
    - target: {fileID: 389149400294641057, guid: f28d44131355d5b4daf4b8f581a6829a,
        type: 3}
      propertyPath: m_Name
      value: arco_roto_04
      objectReference: {fileID: 0}
    - target: {fileID: 8156337133005471788, guid: f28d44131355d5b4daf4b8f581a6829a,
        type: 3}
      propertyPath: m_RootOrder
      value: 0
      objectReference: {fileID: 0}
    - target: {fileID: 8156337133005471788, guid: f28d44131355d5b4daf4b8f581a6829a,
        type: 3}
      propertyPath: m_LocalScale.x
      value: 1
      objectReference: {fileID: 0}
    - target: {fileID: 8156337133005471788, guid: f28d44131355d5b4daf4b8f581a6829a,
        type: 3}
      propertyPath: m_LocalScale.y
      value: 1
      objectReference: {fileID: 0}
    - target: {fileID: 8156337133005471788, guid: f28d44131355d5b4daf4b8f581a6829a,
        type: 3}
      propertyPath: m_LocalScale.z
      value: 1
      objectReference: {fileID: 0}
    - target: {fileID: 8156337133005471788, guid: f28d44131355d5b4daf4b8f581a6829a,
        type: 3}
      propertyPath: m_LocalPosition.x
      value: -0.07006892
      objectReference: {fileID: 0}
    - target: {fileID: 8156337133005471788, guid: f28d44131355d5b4daf4b8f581a6829a,
        type: 3}
      propertyPath: m_LocalPosition.y
      value: -0.21099417
      objectReference: {fileID: 0}
    - target: {fileID: 8156337133005471788, guid: f28d44131355d5b4daf4b8f581a6829a,
        type: 3}
      propertyPath: m_LocalPosition.z
      value: 0.0010338494
      objectReference: {fileID: 0}
    - target: {fileID: 8156337133005471788, guid: f28d44131355d5b4daf4b8f581a6829a,
        type: 3}
      propertyPath: m_LocalRotation.w
      value: 0.7076714
      objectReference: {fileID: 0}
    - target: {fileID: 8156337133005471788, guid: f28d44131355d5b4daf4b8f581a6829a,
        type: 3}
      propertyPath: m_LocalRotation.x
      value: 0.000000029802322
      objectReference: {fileID: 0}
    - target: {fileID: 8156337133005471788, guid: f28d44131355d5b4daf4b8f581a6829a,
        type: 3}
      propertyPath: m_LocalRotation.y
      value: -0.000000059604645
      objectReference: {fileID: 0}
    - target: {fileID: 8156337133005471788, guid: f28d44131355d5b4daf4b8f581a6829a,
        type: 3}
      propertyPath: m_LocalRotation.z
      value: 0.7065418
      objectReference: {fileID: 0}
    - target: {fileID: 8156337133005471788, guid: f28d44131355d5b4daf4b8f581a6829a,
        type: 3}
      propertyPath: m_LocalEulerAnglesHint.x
      value: 0
      objectReference: {fileID: 0}
    - target: {fileID: 8156337133005471788, guid: f28d44131355d5b4daf4b8f581a6829a,
        type: 3}
      propertyPath: m_LocalEulerAnglesHint.y
      value: 0
      objectReference: {fileID: 0}
    - target: {fileID: 8156337133005471788, guid: f28d44131355d5b4daf4b8f581a6829a,
        type: 3}
      propertyPath: m_LocalEulerAnglesHint.z
      value: 0
      objectReference: {fileID: 0}
    m_RemovedComponents: []
  m_SourcePrefab: {fileID: 100100000, guid: f28d44131355d5b4daf4b8f581a6829a, type: 3}
--- !u!4 &4467654390580238467 stripped
Transform:
  m_CorrespondingSourceObject: {fileID: 8156337133005471788, guid: f28d44131355d5b4daf4b8f581a6829a,
    type: 3}
  m_PrefabInstance: {fileID: 5706459403530623151}
  m_PrefabAsset: {fileID: 0}
